%YAML 1.1
%TAG !u! tag:unity3d.com,2011:
--- !u!65 &294062718
BoxCollider:
  m_ObjectHideFlags: 0
  m_CorrespondingSourceObject: {fileID: 0}
  m_PrefabInstance: {fileID: 0}
  m_PrefabAsset: {fileID: 0}
  m_GameObject: {fileID: 7922695770881374356}
  m_Material: {fileID: 0}
  m_IsTrigger: 1
  m_Enabled: 1
  serializedVersion: 2
  m_Size: {x: 0.03464102, y: 0.03464102, z: 0.04999998}
  m_Center: {x: 0, y: 0, z: 0.0024999995}
--- !u!114 &294062719
MonoBehaviour:
  m_ObjectHideFlags: 0
  m_CorrespondingSourceObject: {fileID: 0}
  m_PrefabInstance: {fileID: 0}
  m_PrefabAsset: {fileID: 0}
  m_GameObject: {fileID: 7922695770881374356}
  m_Enabled: 1
  m_EditorHideFlags: 0
  m_Script: {fileID: 11500000, guid: 2e69120dfb028de4fb6933ec9c0d7057, type: 3}
  m_Name: 
  m_EditorClassIdentifier: 
  amountToAdd: 000000000100000000000000
  doublesAmmo: 0
  successSound: {fileID: 8300000, guid: f2d29788a5fc9b34891856bbf5c646c0, type: 3}
--- !u!1001 &2221115491983876509
PrefabInstance:
  m_ObjectHideFlags: 0
  serializedVersion: 2
  m_Modification:
    m_TransformParent: {fileID: 0}
    m_Modifications:
    - target: {fileID: -927199367670048503, guid: 7a5ba636d9ef554428b5e11f5fcc60ab,
        type: 3}
      propertyPath: m_Name
      value: ShotgunShell Variant
      objectReference: {fileID: 0}
    - target: {fileID: -927199367670048503, guid: 7a5ba636d9ef554428b5e11f5fcc60ab,
        type: 3}
      propertyPath: m_Layer
      value: 12
      objectReference: {fileID: 0}
    - target: {fileID: -4216859302048453862, guid: 7a5ba636d9ef554428b5e11f5fcc60ab,
        type: 3}
      propertyPath: m_LocalPosition.x
      value: -4.539517
      objectReference: {fileID: 0}
    - target: {fileID: -4216859302048453862, guid: 7a5ba636d9ef554428b5e11f5fcc60ab,
        type: 3}
      propertyPath: m_LocalPosition.y
      value: -0.823
      objectReference: {fileID: 0}
    - target: {fileID: -4216859302048453862, guid: 7a5ba636d9ef554428b5e11f5fcc60ab,
        type: 3}
      propertyPath: m_LocalPosition.z
      value: 8.614248
      objectReference: {fileID: 0}
    - target: {fileID: -4216859302048453862, guid: 7a5ba636d9ef554428b5e11f5fcc60ab,
        type: 3}
      propertyPath: m_LocalRotation.x
      value: -0.7071068
      objectReference: {fileID: 0}
    - target: {fileID: -4216859302048453862, guid: 7a5ba636d9ef554428b5e11f5fcc60ab,
        type: 3}
      propertyPath: m_LocalRotation.y
      value: 0
      objectReference: {fileID: 0}
    - target: {fileID: -4216859302048453862, guid: 7a5ba636d9ef554428b5e11f5fcc60ab,
        type: 3}
      propertyPath: m_LocalRotation.z
      value: -0
      objectReference: {fileID: 0}
    - target: {fileID: -4216859302048453862, guid: 7a5ba636d9ef554428b5e11f5fcc60ab,
        type: 3}
      propertyPath: m_LocalRotation.w
      value: 0.7071067
      objectReference: {fileID: 0}
    - target: {fileID: -4216859302048453862, guid: 7a5ba636d9ef554428b5e11f5fcc60ab,
        type: 3}
      propertyPath: m_RootOrder
      value: 0
      objectReference: {fileID: 0}
    - target: {fileID: -4216859302048453862, guid: 7a5ba636d9ef554428b5e11f5fcc60ab,
        type: 3}
      propertyPath: m_LocalEulerAnglesHint.x
      value: 0
      objectReference: {fileID: 0}
    - target: {fileID: -4216859302048453862, guid: 7a5ba636d9ef554428b5e11f5fcc60ab,
        type: 3}
      propertyPath: m_LocalEulerAnglesHint.y
      value: 0
      objectReference: {fileID: 0}
    - target: {fileID: -4216859302048453862, guid: 7a5ba636d9ef554428b5e11f5fcc60ab,
        type: 3}
      propertyPath: m_LocalEulerAnglesHint.z
      value: 0
      objectReference: {fileID: 0}
    - target: {fileID: -4216859302048453862, guid: 7a5ba636d9ef554428b5e11f5fcc60ab,
        type: 3}
      propertyPath: m_LocalScale.x
      value: 20
      objectReference: {fileID: 0}
    - target: {fileID: -4216859302048453862, guid: 7a5ba636d9ef554428b5e11f5fcc60ab,
        type: 3}
      propertyPath: m_LocalScale.y
      value: 20
      objectReference: {fileID: 0}
    - target: {fileID: -4216859302048453862, guid: 7a5ba636d9ef554428b5e11f5fcc60ab,
        type: 3}
      propertyPath: m_LocalScale.z
      value: 20
      objectReference: {fileID: 0}
    m_RemovedComponents: []
  m_SourcePrefab: {fileID: 100100000, guid: 7a5ba636d9ef554428b5e11f5fcc60ab, type: 3}
--- !u!1 &7922695770881374356 stripped
GameObject:
  m_CorrespondingSourceObject: {fileID: -927199367670048503, guid: 7a5ba636d9ef554428b5e11f5fcc60ab,
    type: 3}
  m_PrefabInstance: {fileID: 2221115491983876509}
  m_PrefabAsset: {fileID: 0}
