%YAML 1.1
%TAG !u! tag:unity3d.com,2011:
--- !u!1001 &7421495980636964098
PrefabInstance:
  m_ObjectHideFlags: 0
  serializedVersion: 2
  m_Modification:
    m_TransformParent: {fileID: 0}
    m_Modifications:
    - target: {fileID: 7572710755001395016, guid: 18253afb50a9ae14eb97673fdd68f5d3,
        type: 3}
      propertyPath: m_Name
      value: FlourescentLight Cracked Dead
      objectReference: {fileID: 0}
    - target: {fileID: 6867133563493782875, guid: 18253afb50a9ae14eb97673fdd68f5d3,
        type: 3}
      propertyPath: m_LocalPosition.x
      value: -21.750002
      objectReference: {fileID: 0}
    - target: {fileID: 6867133563493782875, guid: 18253afb50a9ae14eb97673fdd68f5d3,
        type: 3}
      propertyPath: m_LocalPosition.y
      value: 0.38311633
      objectReference: {fileID: 0}
    - target: {fileID: 6867133563493782875, guid: 18253afb50a9ae14eb97673fdd68f5d3,
        type: 3}
      propertyPath: m_LocalPosition.z
      value: 11.781458
      objectReference: {fileID: 0}
    - target: {fileID: 6867133563493782875, guid: 18253afb50a9ae14eb97673fdd68f5d3,
        type: 3}
      propertyPath: m_LocalRotation.x
      value: 0
      objectReference: {fileID: 0}
    - target: {fileID: 6867133563493782875, guid: 18253afb50a9ae14eb97673fdd68f5d3,
        type: 3}
      propertyPath: m_LocalRotation.y
      value: 0
      objectReference: {fileID: 0}
    - target: {fileID: 6867133563493782875, guid: 18253afb50a9ae14eb97673fdd68f5d3,
        type: 3}
      propertyPath: m_LocalRotation.z
      value: 0
      objectReference: {fileID: 0}
    - target: {fileID: 6867133563493782875, guid: 18253afb50a9ae14eb97673fdd68f5d3,
        type: 3}
      propertyPath: m_LocalRotation.w
      value: 1
      objectReference: {fileID: 0}
    - target: {fileID: 6867133563493782875, guid: 18253afb50a9ae14eb97673fdd68f5d3,
        type: 3}
      propertyPath: m_RootOrder
      value: 0
      objectReference: {fileID: 0}
    - target: {fileID: 6867133563493782875, guid: 18253afb50a9ae14eb97673fdd68f5d3,
        type: 3}
      propertyPath: m_LocalEulerAnglesHint.x
      value: 0
      objectReference: {fileID: 0}
    - target: {fileID: 6867133563493782875, guid: 18253afb50a9ae14eb97673fdd68f5d3,
        type: 3}
      propertyPath: m_LocalEulerAnglesHint.y
      value: 0
      objectReference: {fileID: 0}
    - target: {fileID: 6867133563493782875, guid: 18253afb50a9ae14eb97673fdd68f5d3,
        type: 3}
      propertyPath: m_LocalEulerAnglesHint.z
      value: 0
      objectReference: {fileID: 0}
    - target: {fileID: 1789248355, guid: 18253afb50a9ae14eb97673fdd68f5d3, type: 3}
      propertyPath: m_IsActive
      value: 0
      objectReference: {fileID: 0}
    - target: {fileID: 7231557447908212933, guid: 18253afb50a9ae14eb97673fdd68f5d3,
        type: 3}
      propertyPath: m_Materials.Array.data[0]
      value: 
      objectReference: {fileID: 2100000, guid: fc9b2957d327a8347878b87dc58b9fa6, type: 2}
    m_RemovedComponents: []
  m_SourcePrefab: {fileID: 100100000, guid: 18253afb50a9ae14eb97673fdd68f5d3, type: 3}
