# ProBuilder 4.0.5
# https://unity3d.com/unity/features/worldbuilding/probuilder
# 2/9/2020 1:42:57 PM

mtllib ./SpiritWater.mtl
o SpiritWater

g Cube
v 100 0 100
v -100 0 100
v 100 1 100
v -100 1 100
v -100 0 -100
v -100 1 -100
v 100 0 -100
v 100 1 -100

vt 0 0
vt -200 0
vt 0 1
vt -200 1
vt 200 0
vt 200 1
vt 0 -200
vt 200 -200
vt -200 -200

vn 0 0 1
vn -1 0 0
vn 0 0 -1
vn 1 0 0
vn 0 1 0
vn 0 -1 0

g Cube
usemtl Water
f 3/3/1 4/4/1 2/2/1 1/1/1
f 4/3/2 6/4/2 5/2/2 2/1/2
f 6/6/3 8/3/3 7/1/3 5/5/3
f 8/6/4 3/3/4 1/1/4 7/5/4
f 8/7/5 6/8/5 4/5/5 3/1/5
f 1/1/6 2/2/6 5/9/6 7/7/6

