# Blender v2.79 (sub 0) OBJ File: 'Gun.blend'
# www.blender.org
mtllib Gun.mtl
o Cube_Gun
v -0.400000 -0.100000 0.300000
v -0.400000 -0.100000 -0.100000
v 0.400001 -0.100000 -0.100000
v 0.400000 -0.100000 0.300000
v -0.400000 0.500000 0.300000
v -0.399999 0.500000 -0.100000
v 0.400001 0.500000 -0.100000
v 0.400000 0.500000 0.300000
v -0.400000 1.100000 0.300000
v -0.399999 1.100000 -0.100000
v 0.400000 1.100000 0.300000
v 0.400001 1.100000 -0.100000
v -0.479999 0.700000 -0.100000
v -0.479999 0.900000 -0.100000
v 0.480001 0.900000 -0.100000
v 0.480001 0.700000 -0.100000
v -0.480000 0.700000 0.300000
v -0.480000 0.900000 0.300000
v 0.480000 0.900000 0.300000
v 0.480000 0.700000 0.300000
v -0.133333 -0.100000 0.300000
v 0.133334 -0.100000 0.300000
v -0.133333 -0.100000 -0.100000
v 0.133334 -0.100000 -0.100000
v -0.133333 0.500000 0.400000
v 0.133334 0.500000 0.400000
v -0.133333 0.500000 -0.100000
v 0.133334 0.500000 -0.100000
v -0.133333 1.100000 0.300000
v 0.133334 1.100000 0.300000
v -0.133333 1.100000 -0.100000
v 0.133334 1.100000 -0.100000
v 0.160000 0.700000 0.400000
v -0.160000 0.700000 0.400000
v -0.159999 0.700000 -0.100000
v 0.160001 0.700000 -0.100000
v -0.159999 0.900000 -0.100000
v 0.160001 0.900000 -0.100000
v 0.133333 1.100000 1.300000
v 0.400000 1.100000 1.300000
v -0.480000 0.900000 1.300000
v -0.400000 1.100000 1.300000
v -0.480000 0.700000 1.300000
v 0.480000 0.900000 1.300000
v 0.480000 0.700000 1.300000
v -0.160000 0.700000 1.300000
v -0.160000 0.600000 1.300000
v -0.133333 1.100000 1.300000
v 0.160000 0.700000 1.300000
v 0.160000 0.600000 1.300000
v 0.133333 1.100000 1.500000
v 0.280000 1.100000 1.500000
v -0.480000 0.900000 1.500000
v -0.280000 1.100000 1.500000
v -0.480000 0.700000 1.500000
v 0.480000 0.900000 1.500000
v 0.480000 0.700000 1.500000
v -0.160000 0.700000 1.700000
v -0.160000 0.900000 1.500000
v -0.133333 1.100000 1.500000
v 0.160000 0.700000 1.700000
v 0.160000 0.900000 1.500000
v 0.160000 0.600000 1.500000
v -0.160000 0.600000 1.500000
v 0.159999 0.700000 3.000000
v -0.160001 0.700000 3.000000
v 0.159999 0.600000 3.000000
v -0.160001 0.600000 3.000000
v -0.000001 0.650000 3.600000
v -0.066666 0.475852 0.474118
v 0.066667 0.475852 0.474118
v 0.080000 0.524148 0.525882
v -0.080000 0.524148 0.525882
vt 0.813419 0.085652
vt 0.813419 0.000060
vt 0.840167 0.000060
vt 0.840167 0.085652
vt 0.692271 0.721847
vt 0.585161 0.722257
vt 0.584585 0.651271
vt 0.691063 0.650422
vt 0.085652 0.535006
vt 0.000060 0.535006
vt 0.021458 0.481512
vt 0.092784 0.481512
vt 0.791901 0.000060
vt 0.791901 0.160544
vt 0.684912 0.160544
vt 0.684912 0.000060
vt 0.542260 0.000060
vt 0.542260 0.160544
vt 0.470933 0.160544
vt 0.470934 0.000060
vt 0.363944 0.160544
vt 0.363944 0.000060
vt 0.855282 0.722159
vt 0.851143 0.646237
vt 0.164110 0.374522
vt 0.235437 0.374522
vt 0.235437 0.481512
vt 0.164110 0.481512
vt 0.434442 0.924550
vt 0.541431 0.924550
vt 0.541431 0.982166
vt 0.434442 0.982166
vt 0.107050 0.946445
vt 0.000060 0.946445
vt 0.000060 0.888830
vt 0.107049 0.888830
vt 0.374523 0.888830
vt 0.374523 0.946445
vt 0.707102 0.567534
vt 0.641194 0.605730
vt 0.596679 0.569153
vt 0.674471 0.524548
vt 0.440725 0.438836
vt 0.440725 0.353245
vt 0.681451 0.353245
vt 0.681451 0.438837
vt 0.363824 0.646116
vt 0.256835 0.646116
vt 0.256835 0.588501
vt 0.363824 0.588501
vt 0.256835 0.535006
vt 0.363824 0.535006
vt 0.384368 0.524548
vt 0.484410 0.562474
vt 0.463986 0.616348
vt 0.363944 0.578422
vt 0.706310 0.214039
vt 0.813299 0.214039
vt 0.813299 0.267533
vt 0.706310 0.267533
vt 0.613586 0.160544
vt 0.620718 0.214039
vt 0.620718 0.267533
vt 0.171243 0.588501
vt 0.171243 0.535006
vt 0.535127 0.214039
vt 0.535127 0.267533
vt 0.449536 0.214039
vt 0.541431 0.871055
vt 0.808904 0.871055
vt 0.808904 0.924550
vt 0.808904 0.982165
vt 0.560585 0.562827
vt 0.553659 0.616348
vt 0.586974 0.555321
vt 0.596558 0.572036
vt 0.092784 0.374523
vt 0.092784 0.107049
vt 0.164110 0.107049
vt 0.413978 0.524428
vt 0.681451 0.524428
vt 0.021458 0.374523
vt 0.851140 0.869272
vt 0.691054 0.865064
vt 0.692269 0.793640
vt 0.855282 0.793344
vt 0.613586 0.000060
vt 0.584587 0.864201
vt 0.585162 0.793223
vt 0.235436 0.107049
vt 0.164110 0.053555
vt 0.203340 0.053555
vt 0.578043 0.643216
vt 0.471054 0.643216
vt 0.471054 0.616469
vt 0.524549 0.616469
vt 0.434322 0.871055
vt 0.428017 0.946445
vt 0.681451 0.267654
vt 0.734946 0.267654
vt 0.788440 0.353245
vt 0.862399 0.871055
vt 0.862399 0.924550
vt 0.788440 0.438837
vt 0.734946 0.524428
vt 0.107050 0.999940
vt 0.374523 0.999940
vt 0.021458 0.107049
vt 0.413978 0.267654
vt 0.171243 0.000060
vt 0.256834 0.000060
vt 0.863065 0.391950
vt 0.842055 0.490673
vt 0.788560 0.490673
vt 0.788560 0.405081
vt 0.832572 0.578043
vt 0.733849 0.599053
vt 0.746980 0.524548
vt 0.832572 0.524548
vt 0.075713 0.785340
vt 0.075717 0.870931
vt 0.000064 0.870935
vt 0.000060 0.785344
vt 0.000060 0.000060
vt 0.085651 0.000060
vt 0.092784 0.053555
vt 0.053555 0.053555
vt 0.428017 0.999940
vt 0.868704 0.999940
vt 0.893661 0.000060
vt 0.893661 0.085652
vt 0.363944 0.616469
vt 0.470934 0.616469
vt 0.417439 0.643216
vt 0.363944 0.643216
vt 0.022217 0.758595
vt 0.423427 0.758576
vt 0.423428 0.785323
vt 0.844079 0.391830
vt 0.825642 0.372452
vt 0.955190 0.267654
vt 0.022213 0.673004
vt 0.423422 0.672984
vt 0.423432 0.870914
vt 0.075706 0.646254
vt 0.423421 0.646237
vt 0.584465 0.715772
vt 0.790707 0.294315
vt 0.788560 0.267654
vt 0.363944 0.413872
vt 0.363944 0.378209
vt 0.382880 0.374643
vt 0.382880 0.417439
vt 0.876091 0.739955
vt 0.876091 0.775548
vt 0.733729 0.541651
vt 0.733729 0.560920
vn 0.0000 -0.0000 -1.0000
vn 0.0000 -1.0000 -0.0000
vn -1.0000 0.0000 -0.0000
vn 1.0000 -0.0000 0.0000
vn 0.1837 -0.0816 0.9796
vn 0.0000 1.0000 0.0000
vn -0.9285 0.3714 -0.0000
vn 0.9285 0.3714 0.0000
vn 0.3215 -0.0857 0.9430
vn 0.9285 -0.3714 0.0000
vn -0.9285 -0.3714 -0.0000
vn -0.3215 -0.0857 0.9430
vn -0.8799 -0.2286 0.4166
vn -0.1837 -0.0816 0.9796
vn -0.0000 -0.1644 0.9864
vn 0.7956 0.5569 0.2387
vn -0.0000 -0.0000 1.0000
vn 0.2692 0.4307 0.8614
vn -0.2692 0.4307 0.8614
vn -0.0000 0.7071 0.7071
vn -0.7956 0.5569 0.2387
vn 0.9662 0.0000 0.2577
vn -0.0000 -0.9965 0.0830
vn -0.9662 0.0000 0.2577
vn 0.0000 0.9965 0.0830
vn -0.0000 -0.7312 0.6822
vn -0.0000 0.5821 0.8131
vn 0.0000 -0.9508 -0.3098
vn 0.8799 -0.2286 0.4166
usemtl Gun
s off
f 46/1/1 49/2/1 50/3/1 47/4/1
usemtl Gun_NONE
f 22/5/2 24/6/2 3/7/2 4/8/2
f 37/9/1 14/10/1 10/11/1 31/12/1
f 1/13/3 5/14/3 6/15/3 2/16/3
f 24/17/1 28/18/1 7/19/1 3/20/1
f 3/20/4 7/19/4 8/21/4 4/22/4
f 26/23/5 22/5/5 4/8/5 8/24/5
f 30/25/6 11/26/6 12/27/6 32/28/6
f 14/29/7 18/30/7 9/31/7 10/32/7
f 19/33/8 15/34/8 12/35/8 11/36/8
f 19/33/8 11/36/8 40/37/8 44/38/8
f 26/39/9 8/40/9 20/41/9 33/42/9
f 34/43/2 33/44/2 49/45/2 46/46/2
f 8/47/10 7/48/10 16/49/10 20/50/10
f 20/50/4 16/49/4 15/51/4 19/52/4
f 6/53/11 5/54/11 17/55/11 13/56/11
f 13/57/3 17/58/3 18/59/3 14/60/3
f 27/61/1 6/15/1 13/57/1 35/62/1
f 35/62/1 13/57/1 14/60/1 37/63/1
f 16/49/1 36/64/1 38/65/1 15/51/1
f 36/66/1 35/62/1 37/63/1 38/67/1
f 7/19/1 28/18/1 36/66/1 16/68/1
f 28/18/1 27/61/1 35/62/1 36/66/1
f 18/30/3 17/69/3 43/70/3 41/71/3
f 9/31/7 18/30/7 41/71/7 42/72/7
f 5/54/12 25/73/12 34/74/12 17/55/12
f 34/74/13 25/73/13 70/75/13 73/76/13
f 30/25/6 29/77/6 48/78/6 39/79/6
f 17/80/2 34/43/2 46/46/2 43/81/2
f 9/82/6 29/77/6 31/12/6 10/11/6
f 29/77/6 30/25/6 32/28/6 31/12/6
f 5/83/14 1/84/14 21/85/14 25/86/14
f 25/86/15 21/85/15 22/5/15 26/23/15
f 2/16/1 6/15/1 27/61/1 23/87/1
f 23/87/1 27/61/1 28/18/1 24/17/1
f 15/51/1 38/65/1 32/28/1 12/27/1
f 38/65/1 37/9/1 31/12/1 32/28/1
f 1/84/2 2/88/2 23/89/2 21/85/2
f 21/85/2 23/89/2 24/6/2 22/5/2
f 40/90/6 39/79/6 51/91/6 52/92/6
f 58/93/3 46/94/3 47/95/3 64/96/3
f 44/38/16 40/37/16 52/97/16 56/98/16
f 49/45/2 45/99/2 57/100/2 61/101/2
f 41/71/3 43/70/3 55/102/3 53/103/3
f 43/81/2 46/46/2 58/104/2 55/105/2
f 11/26/6 30/25/6 39/79/6 40/90/6
f 20/106/4 19/33/4 44/38/4 45/107/4
f 29/77/6 9/82/6 42/108/6 48/78/6
f 33/44/2 20/109/2 45/99/2 49/45/2
f 62/110/17 56/111/17 52/92/17 51/91/17
f 61/112/18 57/113/18 56/114/18 62/115/18
f 55/116/19 58/117/19 59/118/19 53/119/19
f 58/120/20 61/121/20 62/122/20 59/123/20
f 53/124/17 59/125/17 60/126/17 54/127/17
f 59/125/17 62/110/17 51/91/17 60/126/17
f 48/78/6 42/108/6 54/127/6 60/126/6
f 45/107/4 44/38/4 56/98/4 57/128/4
f 42/72/21 41/71/21 53/103/21 54/129/21
f 39/79/6 48/78/6 60/126/6 51/91/6
f 47/4/2 50/3/2 63/130/2 64/131/2
f 49/132/4 61/133/4 63/134/4 50/135/4
f 58/120/3 64/136/3 68/137/3 66/138/3
f 67/139/22 65/140/22 69/141/22
f 64/136/2 63/142/2 67/143/2 68/137/2
f 61/121/6 58/120/6 66/138/6 65/144/6
f 63/142/4 61/145/4 65/146/4 67/143/4
f 68/137/23 67/143/23 69/147/23
f 66/148/24 68/149/24 69/141/24
f 65/140/25 66/148/25 69/141/25
f 70/150/26 71/151/26 72/152/26 73/153/26
f 33/44/27 34/43/27 73/153/27 72/152/27
f 25/86/28 26/23/28 71/154/28 70/155/28
f 26/39/29 33/42/29 72/156/29 71/157/29
